%YAML 1.1
%TAG !u! tag:unity3d.com,2011:
--- !u!114 &11400000
MonoBehaviour:
  m_ObjectHideFlags: 0
  m_PrefabParentObject: {fileID: 0}
  m_PrefabInternal: {fileID: 0}
  m_GameObject: {fileID: 0}
  m_Enabled: 1
  m_EditorHideFlags: 0
  m_Script: {fileID: 11500000, guid: ae0543fe805424df99fe08ce744cbe49, type: 3}
  m_Name: Default
  m_EditorClassIdentifier: 
  m_PoseEntries:
  - path: Bones/Ctrl
    localPosition: {x: -0.15210879, y: -2.4338884, z: 0}
    localRotation: {x: -0, y: -0, z: -0, w: 1}
    localScale: {x: 1, y: 1, z: 1}
  - path: Bones/Ctrl/Body
    localPosition: {x: -0, y: -1.7873454, z: 0}
    localRotation: {x: 0, y: 0, z: 0.7071068, w: 0.7071068}
    localScale: {x: 4.038611, y: 4.0386143, z: 4.0386124}
  - path: Bones/Ctrl/Body/Stem_0
    localPosition: {x: 1.0000002, y: 0, z: 0}
    localRotation: {x: 0, y: 0, z: 0, w: 1}
    localScale: {x: 0.35202467, y: 0.35202485, z: 0.35202485}
  - path: Bones/Ctrl/Body/Stem_0/Stem_1
    localPosition: {x: 1.0000007, y: 0, z: 0}
    localRotation: {x: 0, y: 0, z: -0.027955946, w: 0.9996092}
    localScale: {x: 1, y: 1, z: 1}
  - path: Bones/Ctrl/Body/Stem_0/Stem_1/Stem_2
    localPosition: {x: 1.0001966, y: 0.00000007118069, z: 0}
    localRotation: {x: 0, y: 0, z: -0.030369664, w: 0.9995388}
    localScale: {x: 1.4976392, y: 1.4976393, z: 1.4976393}
  - path: Bones/Ctrl/Body/Stem_0/Stem_1/Stem_2/Flower
    localPosition: {x: 1.3411953, y: -0.0749925, z: 0}
    localRotation: {x: -0, y: -0, z: 0.058297575, w: 0.9982993}
    localScale: {x: 0.2724493, y: 0.2724489, z: 0.2724488}
  - path: Bones/Ctrl/Body/Stem_0/Stem_1/Stem_2/Flower/Petal_0
    localPosition: {x: 1.1800283, y: 0.32778436, z: 0}
    localRotation: {x: -0, y: -0, z: 0.19372886, w: 0.98105514}
    localScale: {x: 1.723861, y: 1.7238612, z: 1.7238613}
  - path: Bones/Ctrl/Body/Stem_0/Stem_1/Stem_2/Flower/Petal_1
    localPosition: {x: 0.5244557, y: -1.5078093, z: 0}
    localRotation: {x: -0, y: -0, z: -0.5511497, w: 0.8344064}
    localScale: {x: 1.7238613, y: 1.7238611, z: 1.7238613}
  - path: Bones/Ctrl/Body/Stem_0/Stem_1/Stem_2/Flower/Petal_2
    localPosition: {x: -0.85224104, y: -1.1144687, z: 0}
    localRotation: {x: -0, y: -0, z: -0.93339103, w: 0.35886106}
    localScale: {x: 1.6132891, y: 1.6132894, z: 1.6132892}
  - path: Bones/Ctrl/Body/Stem_0/Stem_1/Stem_2/Flower/Petal_3
    localPosition: {x: -1.2455821, y: 0.59001255, z: 0}
    localRotation: {x: -0, y: -0, z: -0.9451519, w: -0.32663107}
    localScale: {x: 1.7238615, y: 1.7238615, z: 1.7238613}
  - path: Bones/Ctrl/Body/Stem_0/Stem_1/Stem_2/Flower/Petal_4
    localPosition: {x: -0.19666871, y: 1.1800251, z: 0}
    localRotation: {x: -0, y: -0, z: 0.7071067, w: 0.7071068}
    localScale: {x: 1.7238612, y: 1.7238609, z: 1.7238613}
  - path: Bones/Ctrl/Body/Stem_0/Stem_1/Leaf_L_0
    localPosition: {x: 0.0756974, y: -0.21009548, z: 0}
    localRotation: {x: 0, y: 0, z: -0.33198938, w: 0.94328314}
    localScale: {x: 0.70338833, y: 0.7033881, z: 0.70338726}
  - path: Bones/Ctrl/Body/Stem_0/Stem_1/Leaf_L_0/Leaf_L_1
    localPosition: {x: 0.9999999, y: -0.00000008940697, z: 0}
    localRotation: {x: 0, y: 0, z: -0.10501509, w: 0.9944706}
    localScale: {x: 1.2, y: 1.2, z: 1.2}
  - path: Bones/Ctrl/Body/Stem_0/Stem_1/Leaf_R_0
    localPosition: {x: 0.056152295, y: 0.1949527, z: 0}
    localRotation: {x: 0, y: 0, z: 0.44779164, w: 0.8941379}
    localScale: {x: 0.70338863, y: 0.7033888, z: 0.70338726}
  - path: Bones/Ctrl/Body/Stem_0/Stem_1/Leaf_R_0/Leaf_R_1
    localPosition: {x: 1.0000004, y: -0.00000011920929, z: 0}
    localRotation: {x: 0, y: 0, z: 0.090595506, w: 0.99588776}
    localScale: {x: 1, y: 1, z: 1}
  - path: Bones/Ctrl/Body/Body_L_0
    localPosition: {x: -0.04708797, y: -0.14124775, z: 0}
    localRotation: {x: 0, y: 0, z: -0.6200779, w: 0.7845403}
    localScale: {x: 0.32491288, y: 0.32491302, z: 0.32491264}
  - path: Bones/Ctrl/Body/Body_L_0/Body_L_1
    localPosition: {x: 1, y: 0.00000013981945, z: 0}
    localRotation: {x: 0, y: 0, z: 0.37446865, w: 0.9272396}
    localScale: {x: 1, y: 1, z: 1}
  - path: Bones/Ctrl/Body/Body_L_0/Body_L_1/Body_L_2
    localPosition: {x: 0.99999994, y: 0.00000010430813, z: 0}
    localRotation: {x: 0, y: 0, z: 0.3773313, w: 0.9260783}
    localScale: {x: 1, y: 1, z: 1}
  - path: Bones/Ctrl/Body/Body_L_0/Body_L_1/Body_L_2/Body_L_3
    localPosition: {x: 1.0000002, y: 0.00000023841858, z: 0}
    localRotation: {x: 0, y: 0, z: 0.23367819, w: 0.972314}
    localScale: {x: 1, y: 1, z: 1}
  - path: Bones/Ctrl/Body/Body_L_0/Body_L_1/Body_L_2/Body_L_3/Body_L_4
    localPosition: {x: 0.9999995, y: 0.00000022351742, z: 0}
    localRotation: {x: 0, y: 0, z: 0.22878486, w: 0.973477}
    localScale: {x: 1, y: 1, z: 1}
  - path: Bones/Ctrl/Body/Body_R_0
    localPosition: {x: -0.037671413, y: 0.103578255, z: 0}
    localRotation: {x: 0, y: 0, z: 0.66262, w: 0.7489558}
    localScale: {x: 0.32491365, y: 0.32491392, z: 0.32491356}
  - path: Bones/Ctrl/Body/Body_R_0/Body_R_1
    localPosition: {x: 1, y: 0.00000013981945, z: 0}
    localRotation: {x: 0, y: 0, z: -0.37446898, w: 0.9272395}
    localScale: {x: 1, y: 1, z: 1}
  - path: Bones/Ctrl/Body/Body_R_0/Body_R_1/Body_R_2
    localPosition: {x: 0.99999994, y: 0.00000010430813, z: 0}
    localRotation: {x: 0, y: 0, z: -0.37733173, w: 0.9260782}
    localScale: {x: 1, y: 1, z: 1}
  - path: Bones/Ctrl/Body/Body_R_0/Body_R_1/Body_R_2/Body_R_3
    localPosition: {x: 1.0000002, y: 0.00000023841858, z: 0}
    localRotation: {x: 0, y: 0, z: -0.23367456, w: 0.9723149}
    localScale: {x: 1, y: 1, z: 1}
  - path: Bones/Ctrl/Body/Body_R_0/Body_R_1/Body_R_2/Body_R_3/Body_R_4
    localPosition: {x: 0.9999995, y: 0.00000022351742, z: 0}
    localRotation: {x: 0, y: 0, z: -0.27604404, w: 0.96114504}
    localScale: {x: 1, y: 1, z: 1}
  - path: Bones/Ctrl/Body/Eye_L
    localPosition: {x: 0.5084796, y: -0.3672413, z: 0}
    localRotation: {x: -0, y: -0, z: 0.17364815, w: 0.98480785}
    localScale: {x: 0.24761006, y: 0.24760988, z: 0.2476098}
  - path: Bones/Ctrl/Body/Eye_R
    localPosition: {x: 0.5084797, y: 0.39548618, z: 0}
    localRotation: {x: -0, y: -0, z: -0.04984075, w: 0.9987572}
    localScale: {x: 0.24761009, y: 0.24760988, z: 0.2476098}
  - path: Bones/Ctrl/Body/Mouse
    localPosition: {x: 0.13283803, y: -0.088409886, z: 0}
    localRotation: {x: -0, y: -0, z: 0.17364815, w: 0.98480785}
    localScale: {x: 0.19440639, y: 0.19440629, z: 0.19440632}
  - path: Bones/Ctrl/Body/Mouse/Mouse_L_0
    localPosition: {x: -0.0026465482, y: -0.1336355, z: 0}
    localRotation: {x: -0, y: -0, z: -0.65470546, w: 0.7558842}
    localScale: {x: 1.273672, y: 1.273672, z: 1.2736716}
  - path: Bones/Ctrl/Body/Mouse/Mouse_L_0/Mouse_L_1
    localPosition: {x: 0.99999994, y: 0.000000048428774, z: 0}
    localRotation: {x: -0, y: -0, z: 0.7714694, w: 0.63626647}
    localScale: {x: 0.5009829, y: 0.500983, z: 0.500983}
  - path: Bones/Ctrl/Body/Mouse/Mouse_L_0/Mouse_L_1/Mouse_L_2
    localPosition: {x: 1.0000004, y: 0, z: 0}
    localRotation: {x: -0, y: -0, z: 0.53843844, w: 0.84266484}
    localScale: {x: 1.5874448, y: 1.5874447, z: 1.5874447}
  - path: Bones/Ctrl/Body/Mouse/Mouse_R_0
    localPosition: {x: 0.005720427, y: 0.17259061, z: 0}
    localRotation: {x: 0, y: 0, z: 0.5291838, w: 0.8485072}
    localScale: {x: 1.1204594, y: 1.1204596, z: 1.120457}
  - path: Bones/Ctrl/Body/Mouse/Mouse_R_0/Mouse_R_1
    localPosition: {x: 1.0000002, y: -0.00000011857152, z: 0}
    localRotation: {x: -0, y: -0, z: -0.6875287, w: 0.7261572}
    localScale: {x: 0.50827503, y: 0.50827533, z: 0.50827533}
  - path: Bones/Ctrl/Body/Mouse/Mouse_R_0/Mouse_R_1/Mouse_R_2
    localPosition: {x: 1.0000004, y: 0.00000017590261, z: 0}
    localRotation: {x: -0, y: -0, z: -0.59709424, w: 0.8021711}
    localScale: {x: 1.1145887, y: 1.1145887, z: 1.1145887}
  - path: Bones/Ctrl/Body/Mouse/Slobber
    localPosition: {x: -0.32588407, y: -0.7290149, z: 0}
    localRotation: {x: -0, y: -0, z: -0.98480785, w: -0.17364815}
    localScale: {x: 0.38210177, y: 0.3821016, z: 0.3821015}
  - path: Bones/Water_L
    localPosition: {x: 3.6508045, y: -4.0311117, z: 0}
    localRotation: {x: -0, y: -0, z: 0.81915206, w: 0.57357645}
    localScale: {x: 0.3376374, y: 0.33763704, z: 0.33763692}
  - path: Bones/Water_C
    localPosition: {x: 0.83664846, y: -5.01987, z: 0}
    localRotation: {x: -0, y: -0, z: 0.76604444, w: 0.64278764}
    localScale: {x: 0.6011366, y: 0.6011366, z: 0.60113657}
  - path: Bones/Water_R
    localPosition: {x: -3.5747309, y: -4.753666, z: 0}
    localRotation: {x: -0, y: -0, z: 0.76604444, w: 0.64278764}
    localScale: {x: 0.48521322, y: 0.48521322, z: 0.4852131}
