%YAML 1.1
%TAG !u! tag:unity3d.com,2011:
--- !u!114 &11400000
MonoBehaviour:
  m_ObjectHideFlags: 0
  m_CorrespondingSourceObject: {fileID: 0}
  m_PrefabInstance: {fileID: 0}
  m_PrefabAsset: {fileID: 0}
  m_GameObject: {fileID: 0}
  m_Enabled: 1
  m_EditorHideFlags: 0
  m_Script: {fileID: 11500000, guid: 0ee6a0be065078a4f93c20321baab484, type: 3}
  m_Name: battleGroupTable
  m_EditorClassIdentifier: 
  battleGroups:
  - {fileID: 114291012608826292, guid: 9779daedca6adc546bc1d1503ee94441, type: 3}
  - {fileID: 114291012608826292, guid: 35006453394f92540abb7b9c91aa6d7c, type: 3}
  - {fileID: 114291012608826292, guid: 277c13b8c068d4c4cae8bc95abeb3578, type: 3}
  - {fileID: 114291012608826292, guid: 1b542c94ae4f3544db6da3910e473939, type: 3}
  - {fileID: 114291012608826292, guid: 0bb415c9b2d607f439c48cf0c13a6615, type: 3}
  - {fileID: 114291012608826292, guid: fc8273dd36ceb2046a10994070444456, type: 3}
  - {fileID: 114291012608826292, guid: 8148339752da0e74791faa1095a69d91, type: 3}
  - {fileID: 114291012608826292, guid: ae4842bbb3906f24fb7e5e1193f01c60, type: 3}
  - {fileID: 114291012608826292, guid: 83a1dab451008a24e82930b26ecc6f06, type: 3}
  - {fileID: 114291012608826292, guid: bbd70cc3d0fad6148b6630edafc5d114, type: 3}
  - {fileID: 114284296987870272, guid: 1736a74d8b3634c58bc0f13b21cc76ba, type: 3}
  - {fileID: 114291012608826292, guid: 20a690ea2945531469288464de2ae111, type: 3}
  - {fileID: 114291012608826292, guid: 0af299e4d37791c4ab976974fde5ae2f, type: 3}
  - {fileID: 114291012608826292, guid: 16ea2d18c49952f48a68d5ff9157299e, type: 3}
  - {fileID: 114291012608826292, guid: 101d29bd24d22034e995b18377f4d1b0, type: 3}
  - {fileID: 114291012608826292, guid: 1bcaa7fa1ac7b884b8c7ee959cb4c06a, type: 3}
  - {fileID: 114291012608826292, guid: a45bdacc6ddf9c74cb5681ee7dcd8ed2, type: 3}
  - {fileID: 114291012608826292, guid: c1317280d25111a4e952609b63727e95, type: 3}
  - {fileID: 114291012608826292, guid: 0490ea9d5e96d9247bb5aaaad3656656, type: 3}
  - {fileID: 114291012608826292, guid: dec6a9a193e85c042a33718c1255ab54, type: 3}
  - {fileID: 114291012608826292, guid: f5b8d0071ee55ec4d856f89ca9028e9e, type: 3}
  - {fileID: 114291012608826292, guid: 20362bed2756b7d4a9b4e5e943485b32, type: 3}
  - {fileID: 114291012608826292, guid: 20aab9a9d65c3b349b2578db041b71ea, type: 3}
  - {fileID: 114291012608826292, guid: 46d25e8c4ee36f14fb98014e794cfb2d, type: 3}
  playerGroups:
  - {fileID: 114291012608826292, guid: 29393be1b7f4b4f43b4d1da17abef15c, type: 3}
  - {fileID: 114291012608826292, guid: 684823c1a281b7b44991fef8cbbe3254, type: 3}
  - {fileID: 114291012608826292, guid: 8b876c7cc0cf7394f99f09a384ca5ac8, type: 3}
  - {fileID: 114291012608826292, guid: 2bae0847c8b565d479176bfa286fba89, type: 3}
