タイトル,用途,長さ,拡張子,メモ,ファイル名
metadata,音楽の卵,,,http://ontama-m.com/ongaku_rpg.html,
運命の道しるべ,タイトル 決意,2:24,mp3,,sirube
運命を背負っての旅立ち。,,,,,
時の訪問者,タイトル ピアノ 弦,2:04,mp3,,tokei
コツコツ静かに刻む時計のように。,,,,,
本の記憶,タイトル 悲愴,1:53,mp3,,honnokioku
幾多の人々が込めてきた想い。,,,,,
あやつりの意図,タイトル 弦楽四重奏,0:45,mp3,,ayaturi
短いテーマ風楽曲。タイトル画面ＢＧＭなイメージ。,,,,,
時計紡ぎ,タイトル 弦楽四重奏,1:37,mp3,,tumugi
物悲しげに歌うような弦楽四重奏。,,,,,
不思議な森～プロローグ～,タイトル 静寂,1:07,mp3,,mori01
木々に囲まれ、謎に満ちた広大な森。,,,,,
星ひとかけら,タイトル かわいい,1:54,mp3,,hoshihitokakera
いつか輝く一番星に！,,,,,
遥かなるフロンティア,テーマ 希望,2:12,mp3,,frontier
壮大な物語を予感させる、序章の音楽。,,,,,
伝説,冒頭 プロローグ,2:09,mp3,,densetu
古来の伝説が明かされるとき。,,,,,
語り部の詩,プロローグ オーケストラ,2:06,mp3,,kataribe
その口から語られる勇者の軌跡とこの世界の歴史。,,,,,
暗雲の下へ,プロローグ 悲愴,1:30,mp3,,anun
冒険者の覚悟。,,,,,
いざない,プロローグ ピアノ,1:35,mp3,,izanai
勇気あるもののみこの先へ。,,,,,
朝日を浴びて,プロローグ さわやか,2:46,mp3,,asahiwoabite
朝のさわやかな街、早起きの地元民と疲れて爆睡の冒険者たち。,,,,,
分岐点,メニュー画面 静か,2:49,mp3,,bunkiten
弱くてニューゲーム。,,,,,
冒険の準備,メニュー画面 街,1:49,mp3,,boukennojunbi
メンバー・装備・作戦のカスタマイズ。,,,,,
冒険者ギルド,冒険前 ポップ,2:01,mp3,,guild
これから冒険だドキドキワクワク。,,,,,
戦う者たち,勇ましい 明るい,2:25,mp3,,tatakaumonotachi
これから冒険だドキドキワクワク。,,,,,
道なりに,街 ほがらか,1:49,mp3,,michinarini
憩いの場所。,,,,,
日向の街,街 明るい,1:37,mp3,,hinatanomachi
冒険初心者にやさしい街。,,,,,
にぎやかな田舎町,街 リズミカル,1:37,mp3,,inakamati
何故か掘り出し物いっぱいな田舎町。,,,,,
風と水のステラヴィーネ,街 瑞々しい,1:34,mp3,,stela
リズミカルで軽快な街ＢＧＭ。,,,,,
職人街へようこそ,街 明るい,2:01,mp3,,shock_nin
金属音から怪しい音まで様々に響き渡るにぎやかな職人の街。,,,,,
水車のまわる町,街 さわやか,1:37,mp3,,aquatown
すずしげな水しぶきが心地いい街の風景。,,,,,
のどかな村,村 ゆったり,1:25,mp3,,nodokanamura
フルートの癒し系村BGM。,,,,,
そよ風が通る広場,街 ハーモニカ,2:14,mp3,,piazza
にぎやかに、軽やかに。,,,,,
水やり,街 日常 ゆったり,2:28,mp3,,mizuyari
花と緑に囲まれて。,,,,,
街並み(市街),街 まったり,2:06,mp3,,matinami_n
過ごしやすい便利な街。,,,,,
タイガーアイ,村 民謡風,1:29,mp3,,tigerseye
辺境の地で迷い込んだ場所。,,,,,
故郷,村 郷愁,1:47,mp3,,kokyou
懐かしいあの場所へ。,,,,,
高地の村,村 しっとり,2:43,mp3,,kotinomura
奥深い山里。少しさびしげなフィールド曲にも。,,,,,
メルキア,王宮 優雅 ﾋﾟｱﾉ協奏曲,2:03,mp3,,melkia
貴族や偉い人達の場所。,,,,,
勇み足の行進曲,金管 勇壮,1:42,mp3,,isamiashinokoushinkyoku
全軍思い思いに突撃っ！,,,,,
錬金しましょ,工房 楽しい,2:42,mp3,,renkinshimasyo
大鍋が爆発しても気にしない☆。,,,,,
何ができるかな,工房 コミカル,2:15,mp3,,nanigadekirukana
未知のレシピも果敢に挑む。,,,,,
はじめてのレシピ,工房 ワクワク,2:22,mp3,,hajimetenorecipe
失敗なんて怖くない。,,,,,
武器職人の工房,作業場・リズミカル,1:33,mp3,,bukikobo
落ちた汗も蒸発する熱い工房でトンカントンカン。,,,,,
工房,作業場 オーケストラ,2:10,mp3,,08_koubou
みんなでひたすら黙々作業中。,,,,,
上級者の部屋,作業場 ゆったり,2:06,mp3,,joukyuusyanoheya
上級者は常に落ち着いている。,,,,,
予想外の事態,作業 あたふた,1:58,mp3,,yosougainojitai
大変大変。,,,,,
古びたメロディ,切ない かわいい,2:17,mp3,,hurubitamelody
よみがえる思い出。,,,,,
魔法おばばの住処,怪しい ファゴット,1:50,mp3,,obaba
森の奥、怪しい魔法を研究するおばばの住処。,,,,,
おかしな行商人,ユニーク 軽やか,1:13,mp3,,okasy
掘り出しものをゲットせよ。ぼったくりに注意。,,,,,
闇取引,怪しい オーケストラ,2:00,mp3,,yamitori
密室にて多額の金といわく付きアイテムが動く。,,,,,
遊戯場,カジノ 酒場 にぎやか,2:29,mp3,,yuugijo
底抜けに明るく楽しい場所。,,,,,
空中都市,壮大 ピアノ協奏曲,2:41,mp3,,skytosi
雲に包まれたその都市は天に最も近い人里か。,,,,,
聖女の祈り,オルガン 厳か,2:08,mp3,,seijonoinori
そこだけ時間が止まったように。,,,,,
旅のはじめ,フィールド 明るい,1:56,mp3,,tabinohajime
初心者パーティーは期待と不安を胸に街の外へ。,,,,,
冷たい大地,フィールド シリアス,2:04,mp3,,field
不安と緊張を胸に魔物が生息する草原へ。,,,,,
はじめての旅路,フィールド 寂しげ,2:30,mp3,,hajimetenotabiji
まだ見ぬ仲間を探して。,,,,,
冒険者の歩み,,2:13,mp3,ogg（L）,boukensyanoayumi
フィールド 爽快充実のパーティが行く。,,,,,
外の世界,フィールド 明るい,2:44,mp3,,sotonosekai
俺たちが負けるはずがない！(フラグ)。,,,,,
どこ行こうかな,マップ フィールド,1:49,mp3,,dokoikoukana
大きな地図を広げて。,,,,,
進め進め！,乗り物 爽快,2:09,mp3,,susumesusume
風を切ってどこまでも。,,,,,
深くへ,洞窟 緊張,1:40,mp3,,doukutu
松明を頼りに暗い洞窟の奥深くへ。,,,,,
勇気と不安,洞窟 悲愴,1:40,mp3,,yuukitohuan
心を奮い立たせ、ゆっくりと歩を進める。,,,,,
わくわく探険隊,洞窟 楽しい,2:20,mp3,,wakuwakutankentai
お宝を求めて。,,,,,
闇の洞窟,洞窟 危険,2:38,mp3,,yamidoukutu
邪悪な魔力を感じさせる気味の悪い洞窟。,,,,,
ランプを片手に,洞窟 ワクワク,1:43,mp3,,lamp
楽しい洞窟探検隊。,,,,,
よどみ場,洞窟 悪党の会合,2:21,mp3,,yodomi
明らかに何かありそうなきな臭い空気感。,,,,,
暗がりに紛れて,洞窟 探索,1:41,mp3,,kuragari
人目を避けてコソコソ。,,,,,
精霊の導き,洞窟 森 水系 神秘,2:31,mp3,,seirei
精霊の領域にはよどんだ魔力の持ち主は入れない。,,,,,
灼熱の奥へ,洞窟 炎,1:53,mp3,,syakunetu
熱気と強烈な魔力の立ちこめる最深部へ。,,,,,
濁った風,洞窟 不気味,2:32,mp3,,nigottakaze
瘴気混じりの生暖かい風を受けて。,,,,,
廃れた場所,廃墟 怪しい場所,2:01,mp3,,sutaretabasyo
いいアイテムが眠ってそうな隠れスポット。,,,,,
古代の英知,遺跡 壮大,2:01,mp3,,kodainoeichi
たどり着いた伝説の跡。,,,,,
その階層で見たもの,塔 悲愴,2:46,mp3,,sonokaisoudemitamono
大きな運命を背負って。,,,,,
不思議な森～木々のざわめき～,森,1:34,mp3,,kigi
不思議な生物がいっぱいの森を奥へ奥へと。,,,,,
頂上目指して,山,1:53,mp3,,tozan
飛竜が棲むという険しい山の頂上を目指して。,,,,,
険しい山道,山,2:38,mp3,,yama
道は険しさを増すばかり。,,,,,
風を追いかけて,さわやか・飛翔,2:04,mp3,,wind
鳥のように自由に。,,,,,
飛竜の背に乗って,飛翔,2:09,mp3,,hiryu
ついに飛竜を仲間にして、壮大な空へと。,,,,,
大空は君のもの,飛翔 さわやか,1:54,mp3,,oozora
人々が豆粒のようだ。,,,,,
翼,飛翔 風,1:24,mp3,,tsubasa
風はともだち。,,,,,
影から,暗殺者,1:39,mp3,,20_kagekara
ヒタヒタと背後から迫るアサシンの黒い影。,,,,,
瘴気に満ちて,暗い 悲壮 オーケストラ,3:20,mp3,,syouki
ざわめく空気。強敵の予感。,,,,,
威圧,敵 緊迫,1:17,mp3,,iatu
圧倒的な存在感。,,,,,
クロス陣形,通常戦闘,3:04,mp3,,cross
スタンダード戦闘曲。,,,,,
護身,通常戦闘,2:23,mp3,,goshin
弦楽中心の通常戦闘曲。,,,,,
その右手に剣を取れ,通常戦闘,1:52,mp3,,sonomigiteni
左利きの人は左手に。,,,,,
ぷにぷに注意報,通常戦闘 かわいい,2:31,mp3,,punipunichuuihou
かわいい敵でも油断は禁物。,,,,,
舞太刀,通常戦闘,2:17,mp3,,maitati
オケとバイオリンのクラシカル戦闘曲。,,,,,
えんかうんとっ,戦闘 かわいい コミカル,1:59,mp3,,encount
魔物が襲いかかってきた！ しかし魔物はまだこちらに気付いていない！,,,,,
鉢合わせ,イベント戦闘 通常戦闘,2:23,mp3,,hatiawase
緊急事態風。特定の戦闘などに。,,,,,
対峙,戦闘,3:55,mp3,,taiji
緊張感の強いイベント戦闘風。,,,,,
ヒット＆アウェイ,戦闘,1:59,mp3,,hit_away
疾走系。第２・第３の戦闘曲に。,,,,,
遊戯,戦闘 イベント,1:45,mp3,,16_yuugi
乱戦、戦闘イベント。,,,,,
無傷で勝利せよ,戦闘 タクティカル,2:29,mp3,,mukizudesyouriseyo
作戦：完璧に勝て,,,,,
臨戦,ボス戦,2:20,mp3,,rinsen
バイオリンが歌うボス戦。,,,,,
守護者との戦い,ボス戦,2:20,mp3,,syugosya
疾走する中ボス戦。,,,,,
戦乱幻想曲,ボス戦・イベント戦闘,2:07,mp3,,senran
クラシカルで緊張感のある戦闘曲。,,,,,
夜と冷たい風,ボス戦,3:15,mp3,,yorutotsumetaikaze
白熱の決戦。,,,,,
スティーリアの嵐,ボス戦,2:32,mp3,,steeria
壮大な大ボス戦。,,,,,
第二形態,ボス戦 後半,3:24,mp3,,dainikeitai
戦いはさらに白熱。,,,,,
勝利のうた,戦闘勝利,0:39,mp3,,syourinouta
レベルが上がった。,,,,,
ぜんめつ,戦闘敗北,0:53,mp3,,zenmetsu
おお 〇んでしまうとは なにごとだ,,,,,
奇襲,混乱 ピアノ狂想曲,1:03,mp3,,kisyu
突然の奇襲に街は大パニック。,,,,,
緊急事態発生,疾走 弦楽アンサンブル,1:39,mp3,,kinkyu
逃げ惑う人々。響き渡る怒号や悲鳴。,,,,,
暴動,混乱,2:28,mp3,,21_dousureba
混乱はついに街中を巻き込んだ暴動に発展。,,,,,
作戦決行,ｲﾍﾞﾝﾄ戦闘 オーケストラ,1:56,mp3,,sakusen
逆襲の時は来た。,,,,,
勝利の余韻,勝利 オーケストラ,1:31,mp3,,yoin
厳しい戦いを乗り越え、束の間の安堵の時。,,,,,
歓喜,勝利 吹奏楽,2:13,mp3,,17_kanki
みんなで勝利の味をかみしめる。,,,,,
小さな楽隊のファンファーレ,勇壮 金管,1:41,mp3,,chiisanagakutai
快活な音を背に受けて、明日の勝利を確信する。,,,,,
