%YAML 1.1
%TAG !u! tag:unity3d.com,2011:
--- !u!114 &11400000
MonoBehaviour:
  m_ObjectHideFlags: 0
  m_PrefabParentObject: {fileID: 0}
  m_PrefabInternal: {fileID: 0}
  m_GameObject: {fileID: 0}
  m_Enabled: 1
  m_EditorHideFlags: 0
  m_Script: {fileID: 11500000, guid: c10c0be6d28fe4d539c4a39822fe301c, type: 3}
  m_Name: dragon_3
  m_EditorClassIdentifier: 
  m_ApiVersion: 3
  m_Sprite: {fileID: 21300006, guid: 20bb2b042085c4c36836c3d9c085d2e0, type: 3}
  m_SharedMesh: {fileID: 43908044333082066}
  m_SharedMaterials:
  - {fileID: 21893968753739272}
  pivotPoint: {x: 0, y: 0}
  texVertices: []
  edges: []
  holes: []
  indices: 
  bindPoses: []
--- !u!21 &21893968753739272
Material:
  serializedVersion: 6
  m_ObjectHideFlags: 1
  m_PrefabParentObject: {fileID: 0}
  m_PrefabInternal: {fileID: 0}
  m_Name: dragon_3_0
  m_Shader: {fileID: 10753, guid: 0000000000000000f000000000000000, type: 0}
  m_ShaderKeywords: 
  m_LightmapFlags: 4
  m_EnableInstancingVariants: 0
  m_DoubleSidedGI: 0
  m_CustomRenderQueue: -1
  stringTagMap: {}
  disabledShaderPasses: []
  m_SavedProperties:
    serializedVersion: 3
    m_TexEnvs:
    - _AlphaTex:
        m_Texture: {fileID: 0}
        m_Scale: {x: 1, y: 1}
        m_Offset: {x: 0, y: 0}
    - _MainTex:
        m_Texture: {fileID: 2800000, guid: 20bb2b042085c4c36836c3d9c085d2e0, type: 3}
        m_Scale: {x: 1, y: 1}
        m_Offset: {x: 0, y: 0}
    m_Floats:
    - PixelSnap: 0
    - _EnableExternalAlpha: 0
    m_Colors:
    - _Color: {r: 1, g: 1, b: 1, a: 1}
    - _Flip: {r: 1, g: 1, b: 1, a: 1}
    - _RendererColor: {r: 1, g: 1, b: 1, a: 1}
--- !u!43 &43908044333082066
Mesh:
  m_ObjectHideFlags: 1
  m_PrefabParentObject: {fileID: 0}
  m_PrefabInternal: {fileID: 0}
  m_Name: dragon_3
  serializedVersion: 8
  m_SubMeshes:
  - serializedVersion: 2
    firstByte: 0
    indexCount: 24
    topology: 0
    baseVertex: 0
    firstVertex: 0
    vertexCount: 10
    localAABB:
      m_Center: {x: 0, y: 0, z: 0}
      m_Extent: {x: 3.065, y: 2.665, z: 0}
  m_Shapes:
    vertices: []
    shapes: []
    channels: []
    fullWeights: []
  m_BindPose:
  - e00: -0.99497545
    e01: -0.10012106
    e02: 0
    e03: 1.7916758
    e10: 0.10012106
    e11: -0.99497545
    e12: 0
    e13: -0.18045549
    e20: 0
    e21: 0
    e22: 1
    e23: 0
    e30: 0
    e31: 0
    e32: 0
    e33: 1
  m_BoneNameHashes: 
  m_RootBoneNameHash: 0
  m_MeshCompression: 0
  m_IsReadable: 1
  m_KeepVertices: 1
  m_KeepIndices: 1
  m_IndexFormat: 0
  m_IndexBuffer: 090008000600070006000800050006000700040006000500030004000500010004000300000001000300020001000000
  m_Skin:
  - weight[0]: 1
    weight[1]: 0
    weight[2]: 0
    weight[3]: 0
    boneIndex[0]: 0
    boneIndex[1]: 0
    boneIndex[2]: 0
    boneIndex[3]: 0
  - weight[0]: 1
    weight[1]: 0
    weight[2]: 0
    weight[3]: 0
    boneIndex[0]: 0
    boneIndex[1]: 0
    boneIndex[2]: 0
    boneIndex[3]: 0
  - weight[0]: 1
    weight[1]: 0
    weight[2]: 0
    weight[3]: 0
    boneIndex[0]: 0
    boneIndex[1]: 0
    boneIndex[2]: 0
    boneIndex[3]: 0
  - weight[0]: 1
    weight[1]: 0
    weight[2]: 0
    weight[3]: 0
    boneIndex[0]: 0
    boneIndex[1]: 0
    boneIndex[2]: 0
    boneIndex[3]: 0
  - weight[0]: 1
    weight[1]: 0
    weight[2]: 0
    weight[3]: 0
    boneIndex[0]: 0
    boneIndex[1]: 0
    boneIndex[2]: 0
    boneIndex[3]: 0
  - weight[0]: 1
    weight[1]: 0
    weight[2]: 0
    weight[3]: 0
    boneIndex[0]: 0
    boneIndex[1]: 0
    boneIndex[2]: 0
    boneIndex[3]: 0
  - weight[0]: 1
    weight[1]: 0
    weight[2]: 0
    weight[3]: 0
    boneIndex[0]: 0
    boneIndex[1]: 0
    boneIndex[2]: 0
    boneIndex[3]: 0
  - weight[0]: 1
    weight[1]: 0
    weight[2]: 0
    weight[3]: 0
    boneIndex[0]: 0
    boneIndex[1]: 0
    boneIndex[2]: 0
    boneIndex[3]: 0
  - weight[0]: 1
    weight[1]: 0
    weight[2]: 0
    weight[3]: 0
    boneIndex[0]: 0
    boneIndex[1]: 0
    boneIndex[2]: 0
    boneIndex[3]: 0
  - weight[0]: 1
    weight[1]: 0
    weight[2]: 0
    weight[3]: 0
    boneIndex[0]: 0
    boneIndex[1]: 0
    boneIndex[2]: 0
    boneIndex[3]: 0
  m_VertexData:
    serializedVersion: 2
    m_VertexCount: 10
    m_Channels:
    - stream: 0
      offset: 0
      format: 0
      dimension: 3
    - stream: 0
      offset: 12
      format: 0
      dimension: 3
    - stream: 0
      offset: 0
      format: 0
      dimension: 0
    - stream: 0
      offset: 0
      format: 0
      dimension: 0
    - stream: 1
      offset: 0
      format: 0
      dimension: 2
    - stream: 0
      offset: 0
      format: 0
      dimension: 0
    - stream: 0
      offset: 0
      format: 0
      dimension: 0
    - stream: 0
      offset: 0
      format: 0
      dimension: 0
    - stream: 0
      offset: 0
      format: 0
      dimension: 0
    - stream: 0
      offset: 0
      format: 0
      dimension: 0
    - stream: 0
      offset: 0
      format: 0
      dimension: 0
    - stream: 0
      offset: 0
      format: 0
      dimension: 0
    m_DataSize: 320
    _typelessdata: f6284440b81eb53f000000000000000000000000000080bf713d42400000c0be000000000000000000000000000080bff6284440f6289cbe000000000000000000000000000080bf66660e40295c2740000000000000000000000000000080bf000008403333c3bf000000000000000000000000000080bf0ad7f33f5c8f2a40000000000000000000000000000080bf713d02c05c8f2ac0000000000000000000000000000080bfa47005c05c8f2a40000000000000000000000000000080bff62844c0a470ad3f000000000000000000000000000080bff62844c05c8f2ac0000000000000000000000000000080bf0080793f00e0613f0020793f00804b3f0080793f00604c3f00006f3f00e0703f00c06d3f00203d3f00006b3f0080713f00c0393f00e02e3f0020393f0080713f00e02c3f0020613f00e02c3f00e02e3f
  m_CompressedMesh:
    m_Vertices:
      m_NumItems: 0
      m_Range: 0
      m_Start: 0
      m_Data: 
      m_BitSize: 0
    m_UV:
      m_NumItems: 0
      m_Range: 0
      m_Start: 0
      m_Data: 
      m_BitSize: 0
    m_Normals:
      m_NumItems: 0
      m_Range: 0
      m_Start: 0
      m_Data: 
      m_BitSize: 0
    m_Tangents:
      m_NumItems: 0
      m_Range: 0
      m_Start: 0
      m_Data: 
      m_BitSize: 0
    m_Weights:
      m_NumItems: 0
      m_Data: 
      m_BitSize: 0
    m_NormalSigns:
      m_NumItems: 0
      m_Data: 
      m_BitSize: 0
    m_TangentSigns:
      m_NumItems: 0
      m_Data: 
      m_BitSize: 0
    m_FloatColors:
      m_NumItems: 0
      m_Range: 0
      m_Start: 0
      m_Data: 
      m_BitSize: 0
    m_BoneIndices:
      m_NumItems: 0
      m_Data: 
      m_BitSize: 0
    m_Triangles:
      m_NumItems: 0
      m_Data: 
      m_BitSize: 0
    m_UVInfo: 0
  m_LocalAABB:
    m_Center: {x: 0, y: 0, z: 0}
    m_Extent: {x: 3.065, y: 2.665, z: 0}
  m_MeshUsageFlags: 0
  m_BakedConvexCollisionMesh: 
  m_BakedTriangleCollisionMesh: 
  m_MeshOptimized: 0
--- !u!114 &114398600523895976
MonoBehaviour:
  m_ObjectHideFlags: 1
  m_PrefabParentObject: {fileID: 0}
  m_PrefabInternal: {fileID: 0}
  m_GameObject: {fileID: 0}
  m_Enabled: 1
  m_EditorHideFlags: 0
  m_Script: {fileID: 11500000, guid: 9e715ea371f114f4a8d2584ad476634d, type: 3}
  m_Name: dragon_3_Data
  m_EditorClassIdentifier: 
  m_PivotPoint: {x: 1689.5, y: 1665.5}
  m_Vertices:
  - {x: 1996, y: 1807}
  - {x: 1993, y: 1628}
  - {x: 1996, y: 1635}
  - {x: 1912, y: 1927}
  - {x: 1902, y: 1513}
  - {x: 1880, y: 1932}
  - {x: 1486, y: 1399}
  - {x: 1481, y: 1932}
  - {x: 1383, y: 1801}
  - {x: 1383, y: 1399}
  m_BoneWeights:
  - weight0: 1
    weight1: 0
    weight2: 0
    weight3: 0
    boneIndex0: 0
    boneIndex1: -1
    boneIndex2: -1
    boneIndex3: -1
  - weight0: 1
    weight1: 0
    weight2: 0
    weight3: 0
    boneIndex0: 0
    boneIndex1: -1
    boneIndex2: -1
    boneIndex3: -1
  - weight0: 1
    weight1: 0
    weight2: 0
    weight3: 0
    boneIndex0: 0
    boneIndex1: -1
    boneIndex2: -1
    boneIndex3: -1
  - weight0: 1
    weight1: 0
    weight2: 0
    weight3: 0
    boneIndex0: 0
    boneIndex1: -1
    boneIndex2: -1
    boneIndex3: -1
  - weight0: 1
    weight1: 0
    weight2: 0
    weight3: 0
    boneIndex0: 0
    boneIndex1: -1
    boneIndex2: -1
    boneIndex3: -1
  - weight0: 1
    weight1: 0
    weight2: 0
    weight3: 0
    boneIndex0: 0
    boneIndex1: -1
    boneIndex2: -1
    boneIndex3: -1
  - weight0: 1
    weight1: 0
    weight2: 0
    weight3: 0
    boneIndex0: 0
    boneIndex1: -1
    boneIndex2: -1
    boneIndex3: -1
  - weight0: 1
    weight1: 0
    weight2: 0
    weight3: 0
    boneIndex0: 0
    boneIndex1: -1
    boneIndex2: -1
    boneIndex3: -1
  - weight0: 1
    weight1: 0
    weight2: 0
    weight3: 0
    boneIndex0: 0
    boneIndex1: -1
    boneIndex2: -1
    boneIndex3: -1
  - weight0: 1
    weight1: 0
    weight2: 0
    weight3: 0
    boneIndex0: 0
    boneIndex1: -1
    boneIndex2: -1
    boneIndex3: -1
  m_Edges:
  - index1: 9
    index2: 8
  - index1: 7
    index2: 8
  - index1: 9
    index2: 6
  - index1: 5
    index2: 7
  - index1: 3
    index2: 5
  - index1: 4
    index2: 6
  - index1: 0
    index2: 3
  - index1: 1
    index2: 4
  - index1: 2
    index2: 0
  - index1: 2
    index2: 1
  m_Holes: []
  m_Indices: 090000000800000006000000070000000600000008000000050000000600000007000000040000000600000005000000030000000400000005000000010000000400000003000000000000000100000003000000020000000100000000000000
  m_BindPoses:
  - bindPose:
      e00: -0.99497545
      e01: -0.10012106
      e02: 0
      e03: 1.7916758
      e10: 0.10012106
      e11: -0.99497545
      e12: 0
      e13: -0.18045549
      e20: 0
      e21: 0
      e22: 1
      e23: 0
      e30: 0
      e31: 0
      e32: 0
      e33: 1
    boneLength: 11.23
    path: tail_1
    name: tail_1
    color: {r: 1, g: 0, b: 0, a: 1}
    zOrder: 0
  m_Blendshapes: []
