%YAML 1.1
%TAG !u! tag:unity3d.com,2011:
--- !u!114 &11400000
MonoBehaviour:
  m_ObjectHideFlags: 0
  m_PrefabParentObject: {fileID: 0}
  m_PrefabInternal: {fileID: 0}
  m_GameObject: {fileID: 0}
  m_Enabled: 1
  m_EditorHideFlags: 0
  m_Script: {fileID: 11500000, guid: c10c0be6d28fe4d539c4a39822fe301c, type: 3}
  m_Name: "\u30DE\u30C3\u30B7\u30E5\u30E1\u30EB\u30C4_3"
  m_EditorClassIdentifier: 
  m_ApiVersion: 3
  m_Sprite: {fileID: 21300006, guid: 1641febea335bfe4189f2ac6d52299c3, type: 3}
  m_SharedMesh: {fileID: 43242553653608990}
  m_SharedMaterials:
  - {fileID: 21108552489161224}
  pivotPoint: {x: 0, y: 0}
  texVertices: []
  edges: []
  holes: []
  indices: 
  bindPoses: []
--- !u!21 &21108552489161224
Material:
  serializedVersion: 6
  m_ObjectHideFlags: 1
  m_PrefabParentObject: {fileID: 0}
  m_PrefabInternal: {fileID: 0}
  m_Name: "\u30DE\u30C3\u30B7\u30E5\u30E1\u30EB\u30C4_3_0"
  m_Shader: {fileID: 10753, guid: 0000000000000000f000000000000000, type: 0}
  m_ShaderKeywords: 
  m_LightmapFlags: 4
  m_EnableInstancingVariants: 0
  m_DoubleSidedGI: 0
  m_CustomRenderQueue: -1
  stringTagMap: {}
  disabledShaderPasses: []
  m_SavedProperties:
    serializedVersion: 3
    m_TexEnvs:
    - _AlphaTex:
        m_Texture: {fileID: 0}
        m_Scale: {x: 1, y: 1}
        m_Offset: {x: 0, y: 0}
    - _MainTex:
        m_Texture: {fileID: 2800000, guid: 1641febea335bfe4189f2ac6d52299c3, type: 3}
        m_Scale: {x: 1, y: 1}
        m_Offset: {x: 0, y: 0}
    m_Floats:
    - PixelSnap: 0
    - _EnableExternalAlpha: 0
    m_Colors:
    - _Color: {r: 1, g: 1, b: 1, a: 1}
    - _Flip: {r: 1, g: 1, b: 1, a: 1}
    - _RendererColor: {r: 1, g: 1, b: 1, a: 1}
--- !u!43 &43242553653608990
Mesh:
  m_ObjectHideFlags: 1
  m_PrefabParentObject: {fileID: 0}
  m_PrefabInternal: {fileID: 0}
  m_Name: "\u30DE\u30C3\u30B7\u30E5\u30E1\u30EB\u30C4_3"
  serializedVersion: 8
  m_SubMeshes:
  - serializedVersion: 2
    firstByte: 0
    indexCount: 42
    topology: 0
    firstVertex: 0
    vertexCount: 15
    localAABB:
      m_Center: {x: -0.017382205, y: -0.05626774, z: 0}
      m_Extent: {x: 1.283011, y: 1.6116376, z: 0}
  m_Shapes:
    vertices: []
    shapes: []
    channels: []
    fullWeights: []
  m_BindPose:
  - e00: 0.64066994
    e01: -0.76781654
    e02: 0
    e03: 0.55078155
    e10: 0.76781654
    e11: 0.64066994
    e12: 0
    e13: 0.29122788
    e20: 0
    e21: 0
    e22: 1
    e23: 0
    e30: 0
    e31: 0
    e32: 0
    e33: 1
  - e00: 0.72568977
    e01: -0.68802214
    e02: 0
    e03: -0.55967045
    e10: 0.68802214
    e11: 0.72568977
    e12: 0
    e13: 0.35881355
    e20: 0
    e21: 0
    e22: 1
    e23: 0
    e30: 0
    e31: 0
    e32: 0
    e33: 1
  m_BoneNameHashes: 
  m_RootBoneNameHash: 0
  m_MeshCompression: 0
  m_IsReadable: 1
  m_KeepVertices: 1
  m_KeepIndices: 1
  m_IndexBuffer: 0d0007000b0007000d0008000500070006000b00050004000b000700050009000a000d0003000e0000000300020001000200030000000c0009000b000b0009000d000c000a0009000e000c0000000c000e000a00
  m_Skin:
  - weight[0]: 1
    weight[1]: 0
    weight[2]: 0
    weight[3]: 0
    boneIndex[0]: 1
    boneIndex[1]: 0
    boneIndex[2]: 0
    boneIndex[3]: 0
  - weight[0]: 1
    weight[1]: 0
    weight[2]: 0
    weight[3]: 0
    boneIndex[0]: 1
    boneIndex[1]: 0
    boneIndex[2]: 0
    boneIndex[3]: 0
  - weight[0]: 1
    weight[1]: 0
    weight[2]: 0
    weight[3]: 0
    boneIndex[0]: 1
    boneIndex[1]: 0
    boneIndex[2]: 0
    boneIndex[3]: 0
  - weight[0]: 1
    weight[1]: 0
    weight[2]: 0
    weight[3]: 0
    boneIndex[0]: 1
    boneIndex[1]: 0
    boneIndex[2]: 0
    boneIndex[3]: 0
  - weight[0]: 1
    weight[1]: 0
    weight[2]: 0
    weight[3]: 0
    boneIndex[0]: 0
    boneIndex[1]: 0
    boneIndex[2]: 0
    boneIndex[3]: 0
  - weight[0]: 1
    weight[1]: 0
    weight[2]: 0
    weight[3]: 0
    boneIndex[0]: 0
    boneIndex[1]: 0
    boneIndex[2]: 0
    boneIndex[3]: 0
  - weight[0]: 1
    weight[1]: 0
    weight[2]: 0
    weight[3]: 0
    boneIndex[0]: 0
    boneIndex[1]: 0
    boneIndex[2]: 0
    boneIndex[3]: 0
  - weight[0]: 1
    weight[1]: 0
    weight[2]: 0
    weight[3]: 0
    boneIndex[0]: 0
    boneIndex[1]: 0
    boneIndex[2]: 0
    boneIndex[3]: 0
  - weight[0]: 1
    weight[1]: 0
    weight[2]: 0
    weight[3]: 0
    boneIndex[0]: 0
    boneIndex[1]: 0
    boneIndex[2]: 0
    boneIndex[3]: 0
  - weight[0]: 0.7610902
    weight[1]: 0.23890981
    weight[2]: 0
    weight[3]: 0
    boneIndex[0]: 0
    boneIndex[1]: 1
    boneIndex[2]: 0
    boneIndex[3]: 0
  - weight[0]: 0.5339689
    weight[1]: 0.46603101
    weight[2]: 0
    weight[3]: 0
    boneIndex[0]: 0
    boneIndex[1]: 1
    boneIndex[2]: 0
    boneIndex[3]: 0
  - weight[0]: 0.94462794
    weight[1]: 0.055372056
    weight[2]: 0
    weight[3]: 0
    boneIndex[0]: 0
    boneIndex[1]: 1
    boneIndex[2]: 0
    boneIndex[3]: 0
  - weight[0]: 0.6286554
    weight[1]: 0.37134463
    weight[2]: 0
    weight[3]: 0
    boneIndex[0]: 1
    boneIndex[1]: 0
    boneIndex[2]: 0
    boneIndex[3]: 0
  - weight[0]: 0.9097484
    weight[1]: 0.09025159
    weight[2]: 0
    weight[3]: 0
    boneIndex[0]: 0
    boneIndex[1]: 1
    boneIndex[2]: 0
    boneIndex[3]: 0
  - weight[0]: 0.82226324
    weight[1]: 0.17773674
    weight[2]: 0
    weight[3]: 0
    boneIndex[0]: 1
    boneIndex[1]: 0
    boneIndex[2]: 0
    boneIndex[3]: 0
  m_VertexData:
    m_CurrentChannels: 11
    m_VertexCount: 15
    m_Channels:
    - stream: 0
      offset: 0
      format: 0
      dimension: 3
    - stream: 0
      offset: 12
      format: 0
      dimension: 3
    - stream: 0
      offset: 0
      format: 0
      dimension: 0
    - stream: 1
      offset: 0
      format: 0
      dimension: 2
    - stream: 0
      offset: 0
      format: 0
      dimension: 0
    - stream: 0
      offset: 0
      format: 0
      dimension: 0
    - stream: 0
      offset: 0
      format: 0
      dimension: 0
    - stream: 0
      offset: 0
      format: 0
      dimension: 0
    m_DataSize: 488
    _typelessdata: 1f00a23f9af544bf000000000000000000000000000080bf0000903fae47c1bf000000000000000000000000000080bf14ae973fcdccacbf000000000000000000000000000080bf1466993eec7dd5bf000000000000000000000000000080bfae3b15bf5c16c73f000000000000000000000000000080bf333313bfae47c13f000000000000000000000000000080bfcdcc2cbfae47c13f000000000000000000000000000080bf14ae97bf8fc2f53c000000000000000000000000000080bf4873a6bfaef7d5be000000000000000000000000000080bfd73f163f0ad7aa3d000000000000000000000000000080bfb892d4be940497bf000000000000000000000000000080bf6636cf3e33c39d3e000000000000000000000000000080bf8f54513f007042be000000000000000000000000000080bfa43c4cbf14f856bf000000000000000000000000000080bfecd904bedc56aebf000000000000000000000000000080bf00000000000000000322493f0242023f0060473f0000f23e0020483f0000f63ebe0e3d3f680dee3e9606323f2f511f3f0020323f00c01e3f00e0303f00c01e3f00802a3f00400c3fbe0e293fb4a6063f1ea6403ff0ea0c3f6b1f343f1b41fa3e145f3e3f04ba0f3fa188433f6280093f0a572f3fe360013fd7b0373f09b3f53e
  m_CompressedMesh:
    m_Vertices:
      m_NumItems: 0
      m_Range: 0
      m_Start: 0
      m_Data: 
      m_BitSize: 0
    m_UV:
      m_NumItems: 0
      m_Range: 0
      m_Start: 0
      m_Data: 
      m_BitSize: 0
    m_Normals:
      m_NumItems: 0
      m_Range: 0
      m_Start: 0
      m_Data: 
      m_BitSize: 0
    m_Tangents:
      m_NumItems: 0
      m_Range: 0
      m_Start: 0
      m_Data: 
      m_BitSize: 0
    m_Weights:
      m_NumItems: 0
      m_Data: 
      m_BitSize: 0
    m_NormalSigns:
      m_NumItems: 0
      m_Data: 
      m_BitSize: 0
    m_TangentSigns:
      m_NumItems: 0
      m_Data: 
      m_BitSize: 0
    m_FloatColors:
      m_NumItems: 0
      m_Range: 0
      m_Start: 0
      m_Data: 
      m_BitSize: 0
    m_BoneIndices:
      m_NumItems: 0
      m_Data: 
      m_BitSize: 0
    m_Triangles:
      m_NumItems: 0
      m_Data: 
      m_BitSize: 0
    m_UVInfo: 0
  m_LocalAABB:
    m_Center: {x: -0.017382205, y: -0.05626774, z: 0}
    m_Extent: {x: 1.283011, y: 1.6116376, z: 0}
  m_MeshUsageFlags: 0
  m_BakedConvexCollisionMesh: 
  m_BakedTriangleCollisionMesh: 
  m_MeshOptimized: 0
--- !u!114 &114624696046788006
MonoBehaviour:
  m_ObjectHideFlags: 1
  m_PrefabParentObject: {fileID: 0}
  m_PrefabInternal: {fileID: 0}
  m_GameObject: {fileID: 0}
  m_Enabled: 1
  m_EditorHideFlags: 0
  m_Script: {fileID: 11500000, guid: 9e715ea371f114f4a8d2584ad476634d, type: 3}
  m_Name: "\u30DE\u30C3\u30B7\u30E5\u30E1\u30EB\u30C4_3_Data"
  m_EditorClassIdentifier: 
  m_PivotPoint: {x: 1482.5, y: 1119}
  m_Vertices:
  - {x: 1609.0629, y: 1042.0627}
  - {x: 1595, y: 968}
  - {x: 1601, y: 984}
  - {x: 1512.4607, y: 952.2095}
  - {x: 1424.2058, y: 1274.537}
  - {x: 1425, y: 1270}
  - {x: 1415, y: 1270}
  - {x: 1364, y: 1122}
  - {x: 1352.4607, y: 1077.2095}
  - {x: 1541.1912, y: 1127.3418}
  - {x: 1440.9818, y: 1001.0173}
  - {x: 1522.9712, y: 1149.813}
  - {x: 1564.2697, y: 1100.012}
  - {x: 1402.72, y: 1035.0277}
  - {x: 1469.5262, y: 982.7974}
  m_BoneWeights:
  - weight0: 1
    weight1: 0
    weight2: 0
    weight3: 0
    boneIndex0: 1
    boneIndex1: -1
    boneIndex2: -1
    boneIndex3: -1
  - weight0: 1
    weight1: 0
    weight2: 0
    weight3: 0
    boneIndex0: 1
    boneIndex1: -1
    boneIndex2: -1
    boneIndex3: -1
  - weight0: 1
    weight1: 0
    weight2: 0
    weight3: 0
    boneIndex0: 1
    boneIndex1: -1
    boneIndex2: -1
    boneIndex3: -1
  - weight0: 1
    weight1: 0
    weight2: 0
    weight3: 0
    boneIndex0: 1
    boneIndex1: -1
    boneIndex2: -1
    boneIndex3: -1
  - weight0: 1
    weight1: 0
    weight2: 0
    weight3: 0
    boneIndex0: 0
    boneIndex1: -1
    boneIndex2: -1
    boneIndex3: -1
  - weight0: 1
    weight1: 0
    weight2: 0
    weight3: 0
    boneIndex0: 0
    boneIndex1: -1
    boneIndex2: -1
    boneIndex3: -1
  - weight0: 1
    weight1: 0
    weight2: 0
    weight3: 0
    boneIndex0: 0
    boneIndex1: -1
    boneIndex2: -1
    boneIndex3: -1
  - weight0: 1
    weight1: 0
    weight2: 0
    weight3: 0
    boneIndex0: 0
    boneIndex1: -1
    boneIndex2: -1
    boneIndex3: -1
  - weight0: 1
    weight1: 0
    weight2: 0
    weight3: 0
    boneIndex0: 0
    boneIndex1: -1
    boneIndex2: -1
    boneIndex3: -1
  - weight0: 0.7610902
    weight1: 0.23890981
    weight2: 0
    weight3: 0
    boneIndex0: 0
    boneIndex1: 1
    boneIndex2: -1
    boneIndex3: -1
  - weight0: 0.5339689
    weight1: 0.46603101
    weight2: 0
    weight3: 0
    boneIndex0: 0
    boneIndex1: 1
    boneIndex2: -1
    boneIndex3: -1
  - weight0: 0.94462794
    weight1: 0.055372056
    weight2: 0
    weight3: 0
    boneIndex0: 0
    boneIndex1: 1
    boneIndex2: -1
    boneIndex3: -1
  - weight0: 0.6286554
    weight1: 0.37134463
    weight2: 0
    weight3: 0
    boneIndex0: 1
    boneIndex1: 0
    boneIndex2: -1
    boneIndex3: -1
  - weight0: 0.9097484
    weight1: 0.09025159
    weight2: 0
    weight3: 0
    boneIndex0: 0
    boneIndex1: 1
    boneIndex2: -1
    boneIndex3: -1
  - weight0: 0.82226324
    weight1: 0.17773674
    weight2: 0
    weight3: 0
    boneIndex0: 1
    boneIndex1: 0
    boneIndex2: -1
    boneIndex3: -1
  m_Edges:
  - index1: 8
    index2: 7
  - index1: 6
    index2: 7
  - index1: 5
    index2: 6
  - index1: 4
    index2: 5
  - index1: 2
    index2: 0
  - index1: 1
    index2: 3
  - index1: 2
    index2: 1
  - index1: 4
    index2: 11
  - index1: 9
    index2: 11
  - index1: 0
    index2: 12
  - index1: 9
    index2: 12
  - index1: 11
    index2: 12
  - index1: 8
    index2: 13
  - index1: 10
    index2: 13
  - index1: 3
    index2: 14
  - index1: 10
    index2: 14
  m_Holes: []
  m_Indices: 0d000000070000000b000000070000000d000000080000000500000007000000060000000b00000005000000040000000b0000000700000005000000090000000a0000000d000000030000000e000000000000000300000002000000010000000200000003000000000000000c000000090000000b0000000b000000090000000d0000000c0000000a000000090000000e0000000c000000000000000c0000000e0000000a000000
  m_BindPoses:
  - bindPose:
      e00: 0.64066994
      e01: -0.76781654
      e02: 0
      e03: 0.55078155
      e10: 0.76781654
      e11: 0.64066994
      e12: 0
      e13: 0.29122788
      e20: 0
      e21: 0
      e22: 1
      e23: 0
      e30: 0
      e31: 0
      e32: 0
      e33: 1
    boneLength: 1.1484141
    path: "\u8EAB\u4F53bone_2/\u8EAB\u4F53bone_3/\u8EAB\u4F53bone_4/\u5DE6\u624Bbone_1"
    name: "\u5DE6\u624Bbone_1"
    color: {r: 1, g: 0, b: 0, a: 1}
    zOrder: 0
  - bindPose:
      e00: 0.72568977
      e01: -0.68802214
      e02: 0
      e03: -0.55967045
      e10: 0.68802214
      e11: 0.72568977
      e12: 0
      e13: 0.35881355
      e20: 0
      e21: 0
      e22: 1
      e23: 0
      e30: 0
      e31: 0
      e32: 0
      e33: 1
    boneLength: 1.1093497
    path: "\u8EAB\u4F53bone_2/\u8EAB\u4F53bone_3/\u8EAB\u4F53bone_4/\u5DE6\u624Bbone_1/\u5DE6\u624Bbone_2"
    name: "\u5DE6\u624Bbone_2"
    color: {r: 1, g: 0.75, b: 0, a: 1}
    zOrder: 0
  m_Blendshapes: []
