%YAML 1.1
%TAG !u! tag:unity3d.com,2011:
--- !u!114 &11400000
MonoBehaviour:
  m_ObjectHideFlags: 0
  m_PrefabParentObject: {fileID: 0}
  m_PrefabInternal: {fileID: 0}
  m_GameObject: {fileID: 0}
  m_Enabled: 1
  m_EditorHideFlags: 0
  m_Script: {fileID: 11500000, guid: c10c0be6d28fe4d539c4a39822fe301c, type: 3}
  m_Name: Eye_R
  m_EditorClassIdentifier: 
  m_ApiVersion: 3
  m_Sprite: {fileID: 21300006, guid: eb5014aaa163b7d448d5ad5f8ef764ba, type: 3}
  m_SharedMesh: {fileID: 43404168791850806}
  m_SharedMaterials:
  - {fileID: 21905557123317706}
  pivotPoint: {x: 0, y: 0}
  texVertices: []
  edges: []
  holes: []
  indices: 
  bindPoses: []
--- !u!21 &21905557123317706
Material:
  serializedVersion: 6
  m_ObjectHideFlags: 1
  m_PrefabParentObject: {fileID: 0}
  m_PrefabInternal: {fileID: 0}
  m_Name: Eye_R_0
  m_Shader: {fileID: 10753, guid: 0000000000000000f000000000000000, type: 0}
  m_ShaderKeywords: 
  m_LightmapFlags: 4
  m_EnableInstancingVariants: 0
  m_DoubleSidedGI: 0
  m_CustomRenderQueue: -1
  stringTagMap: {}
  disabledShaderPasses: []
  m_SavedProperties:
    serializedVersion: 3
    m_TexEnvs:
    - _AlphaTex:
        m_Texture: {fileID: 0}
        m_Scale: {x: 1, y: 1}
        m_Offset: {x: 0, y: 0}
    - _MainTex:
        m_Texture: {fileID: 2800000, guid: eb5014aaa163b7d448d5ad5f8ef764ba, type: 3}
        m_Scale: {x: 1, y: 1}
        m_Offset: {x: 0, y: 0}
    m_Floats:
    - PixelSnap: 0
    - _EnableExternalAlpha: 0
    m_Colors:
    - _Color: {r: 1, g: 1, b: 1, a: 1}
    - _Flip: {r: 1, g: 1, b: 1, a: 1}
    - _RendererColor: {r: 1, g: 1, b: 1, a: 1}
--- !u!43 &43404168791850806
Mesh:
  m_ObjectHideFlags: 1
  m_PrefabParentObject: {fileID: 0}
  m_PrefabInternal: {fileID: 0}
  m_Name: Eye_R
  serializedVersion: 8
  m_SubMeshes:
  - serializedVersion: 2
    firstByte: 0
    indexCount: 39
    topology: 0
    firstVertex: 0
    vertexCount: 12
    localAABB:
      m_Center: {x: 0.00999999, y: 0.00500001, z: 0}
      m_Extent: {x: 0.345, y: 0.39499998, z: 0}
  m_Shapes:
    vertices: []
    shapes: []
    channels: []
    fullWeights: []
  m_BindPose:
  - e00: -1.732051
    e01: 0.99999994
    e02: 0
    e03: 0.7304044
    e10: -0.99999994
    e11: -1.732051
    e12: 0
    e13: -0.016658304
    e20: 0
    e21: 0
    e22: 2
    e23: 0
    e30: 0
    e31: 0
    e32: 0
    e33: 1
  m_BoneNameHashes: 
  m_RootBoneNameHash: 0
  m_MeshCompression: 0
  m_IsReadable: 1
  m_KeepVertices: 1
  m_KeepIndices: 1
  m_IndexBuffer: 0a000b000300020009000a000200010000000b000500040009000200000007000600050000000800090008000700090005000b000700040003000b0009000b000a00090007000b000a0003000200
  m_Skin:
  - weight[0]: 1
    weight[1]: 0
    weight[2]: 0
    weight[3]: 0
    boneIndex[0]: 0
    boneIndex[1]: 0
    boneIndex[2]: 0
    boneIndex[3]: 0
  - weight[0]: 1
    weight[1]: 0
    weight[2]: 0
    weight[3]: 0
    boneIndex[0]: 0
    boneIndex[1]: 0
    boneIndex[2]: 0
    boneIndex[3]: 0
  - weight[0]: 1
    weight[1]: 0
    weight[2]: 0
    weight[3]: 0
    boneIndex[0]: 0
    boneIndex[1]: 0
    boneIndex[2]: 0
    boneIndex[3]: 0
  - weight[0]: 1
    weight[1]: 0
    weight[2]: 0
    weight[3]: 0
    boneIndex[0]: 0
    boneIndex[1]: 0
    boneIndex[2]: 0
    boneIndex[3]: 0
  - weight[0]: 1
    weight[1]: 0
    weight[2]: 0
    weight[3]: 0
    boneIndex[0]: 0
    boneIndex[1]: 0
    boneIndex[2]: 0
    boneIndex[3]: 0
  - weight[0]: 1
    weight[1]: 0
    weight[2]: 0
    weight[3]: 0
    boneIndex[0]: 0
    boneIndex[1]: 0
    boneIndex[2]: 0
    boneIndex[3]: 0
  - weight[0]: 1
    weight[1]: 0
    weight[2]: 0
    weight[3]: 0
    boneIndex[0]: 0
    boneIndex[1]: 0
    boneIndex[2]: 0
    boneIndex[3]: 0
  - weight[0]: 1
    weight[1]: 0
    weight[2]: 0
    weight[3]: 0
    boneIndex[0]: 0
    boneIndex[1]: 0
    boneIndex[2]: 0
    boneIndex[3]: 0
  - weight[0]: 1
    weight[1]: 0
    weight[2]: 0
    weight[3]: 0
    boneIndex[0]: 0
    boneIndex[1]: 0
    boneIndex[2]: 0
    boneIndex[3]: 0
  - weight[0]: 1
    weight[1]: 0
    weight[2]: 0
    weight[3]: 0
    boneIndex[0]: 0
    boneIndex[1]: 0
    boneIndex[2]: 0
    boneIndex[3]: 0
  - weight[0]: 1
    weight[1]: 0
    weight[2]: 0
    weight[3]: 0
    boneIndex[0]: 0
    boneIndex[1]: 0
    boneIndex[2]: 0
    boneIndex[3]: 0
  - weight[0]: 1
    weight[1]: 0
    weight[2]: 0
    weight[3]: 0
    boneIndex[0]: 0
    boneIndex[1]: 0
    boneIndex[2]: 0
    boneIndex[3]: 0
  m_VertexData:
    m_CurrentChannels: 11
    m_VertexCount: 12
    m_Channels:
    - stream: 0
      offset: 0
      format: 0
      dimension: 3
    - stream: 0
      offset: 12
      format: 0
      dimension: 3
    - stream: 0
      offset: 0
      format: 0
      dimension: 0
    - stream: 1
      offset: 0
      format: 0
      dimension: 2
    - stream: 0
      offset: 0
      format: 0
      dimension: 0
    - stream: 0
      offset: 0
      format: 0
      dimension: 0
    - stream: 0
      offset: 0
      format: 0
      dimension: 0
    - stream: 0
      offset: 0
      format: 0
      dimension: 0
    m_DataSize: 384
    _typelessdata: 295c0f3dcdcccc3e000000000000000000000000000080bf5c8f82becdcccc3e000000000000000000000000000080bf1f85abbe8fc2753e000000000000000000000000000080bf1f85abbe295c8fbe000000000000000000000000000080bfa4703dbe14aec7be000000000000000000000000000080bfd7a3703e14aec7be000000000000000000000000000080bf8fc2b53e0ad7a3be000000000000000000000000000080bf8fc2b53ecdccccbd000000000000000000000000000080bfc3f5283e5c8fc23e000000000000000000000000000080bf9a59473dcdcc663d000000000000000000000000000080bfa40865be0ad7a3bc000000000000000000000000000080bfcdcccc3c14c65cbe000000000000000000000000000080bf00204a3f00c03b3f0080463f00c03b3f0080453f00c0393f0080453f0040333f0060473f00e0313f00a04c3f00e0313f00204e3f00c0323f00204e3f0080353f00c04b3f00803b3fbe4b4a3f5074373f45e4463f0080363f00004a3f150e343f
  m_CompressedMesh:
    m_Vertices:
      m_NumItems: 0
      m_Range: 0
      m_Start: 0
      m_Data: 
      m_BitSize: 0
    m_UV:
      m_NumItems: 0
      m_Range: 0
      m_Start: 0
      m_Data: 
      m_BitSize: 0
    m_Normals:
      m_NumItems: 0
      m_Range: 0
      m_Start: 0
      m_Data: 
      m_BitSize: 0
    m_Tangents:
      m_NumItems: 0
      m_Range: 0
      m_Start: 0
      m_Data: 
      m_BitSize: 0
    m_Weights:
      m_NumItems: 0
      m_Data: 
      m_BitSize: 0
    m_NormalSigns:
      m_NumItems: 0
      m_Data: 
      m_BitSize: 0
    m_TangentSigns:
      m_NumItems: 0
      m_Data: 
      m_BitSize: 0
    m_FloatColors:
      m_NumItems: 0
      m_Range: 0
      m_Start: 0
      m_Data: 
      m_BitSize: 0
    m_BoneIndices:
      m_NumItems: 0
      m_Data: 
      m_BitSize: 0
    m_Triangles:
      m_NumItems: 0
      m_Data: 
      m_BitSize: 0
    m_UVInfo: 0
  m_LocalAABB:
    m_Center: {x: 0.00999999, y: 0.00500001, z: 0}
    m_Extent: {x: 0.345, y: 0.39499998, z: 0}
  m_MeshUsageFlags: 0
  m_BakedConvexCollisionMesh: 
  m_BakedTriangleCollisionMesh: 
  m_MeshOptimized: 0
--- !u!114 &114065198632459300
MonoBehaviour:
  m_ObjectHideFlags: 1
  m_PrefabParentObject: {fileID: 0}
  m_PrefabInternal: {fileID: 0}
  m_GameObject: {fileID: 0}
  m_Enabled: 1
  m_EditorHideFlags: 0
  m_Script: {fileID: 11500000, guid: 9e715ea371f114f4a8d2584ad476634d, type: 3}
  m_Name: texture_00_3_Data
  m_EditorClassIdentifier: 
  m_PivotPoint: {x: 1613.5, y: 1462}
  m_Vertices:
  - {x: 1617, y: 1502}
  - {x: 1588, y: 1502}
  - {x: 1580, y: 1486}
  - {x: 1580, y: 1434}
  - {x: 1595, y: 1423}
  - {x: 1637, y: 1423}
  - {x: 1649, y: 1430}
  - {x: 1649, y: 1452}
  - {x: 1630, y: 1500}
  - {x: 1618.367, y: 1467.6348}
  - {x: 1591.1334, y: 1460}
  - {x: 1616, y: 1440.4401}
  m_BoneWeights:
  - weight0: 1
    weight1: 0
    weight2: 0
    weight3: 0
    boneIndex0: 0
    boneIndex1: -1
    boneIndex2: -1
    boneIndex3: -1
  - weight0: 1
    weight1: 0
    weight2: 0
    weight3: 0
    boneIndex0: 0
    boneIndex1: -1
    boneIndex2: -1
    boneIndex3: -1
  - weight0: 1
    weight1: 0
    weight2: 0
    weight3: 0
    boneIndex0: 0
    boneIndex1: -1
    boneIndex2: -1
    boneIndex3: -1
  - weight0: 1
    weight1: 0
    weight2: 0
    weight3: 0
    boneIndex0: 0
    boneIndex1: -1
    boneIndex2: -1
    boneIndex3: -1
  - weight0: 1
    weight1: 0
    weight2: 0
    weight3: 0
    boneIndex0: 0
    boneIndex1: -1
    boneIndex2: -1
    boneIndex3: -1
  - weight0: 1
    weight1: 0
    weight2: 0
    weight3: 0
    boneIndex0: 0
    boneIndex1: -1
    boneIndex2: -1
    boneIndex3: -1
  - weight0: 1
    weight1: 0
    weight2: 0
    weight3: 0
    boneIndex0: 0
    boneIndex1: -1
    boneIndex2: -1
    boneIndex3: -1
  - weight0: 1
    weight1: 0
    weight2: 0
    weight3: 0
    boneIndex0: 0
    boneIndex1: -1
    boneIndex2: -1
    boneIndex3: -1
  - weight0: 1
    weight1: 0
    weight2: 0
    weight3: 0
    boneIndex0: 0
    boneIndex1: -1
    boneIndex2: -1
    boneIndex3: -1
  - weight0: 1
    weight1: 0
    weight2: 0
    weight3: 0
    boneIndex0: 0
    boneIndex1: -1
    boneIndex2: -1
    boneIndex3: -1
  - weight0: 1
    weight1: 0
    weight2: 0
    weight3: 0
    boneIndex0: 0
    boneIndex1: -1
    boneIndex2: -1
    boneIndex3: -1
  - weight0: 1
    weight1: 0
    weight2: 0
    weight3: 0
    boneIndex0: 0
    boneIndex1: -1
    boneIndex2: -1
    boneIndex3: -1
  m_Edges:
  - index1: 1
    index2: 0
  - index1: 2
    index2: 1
  - index1: 3
    index2: 2
  - index1: 4
    index2: 3
  - index1: 5
    index2: 4
  - index1: 6
    index2: 5
  - index1: 7
    index2: 6
  - index1: 8
    index2: 7
  - index1: 0
    index2: 8
  m_Holes: []
  m_Indices: 0a0000000b0000000300000002000000090000000a0000000200000001000000000000000b0000000500000004000000090000000200000000000000070000000600000005000000000000000800000009000000080000000700000009000000050000000b0000000700000004000000030000000b000000090000000b0000000a00000009000000070000000b0000000a0000000300000002000000
  m_BindPoses:
  - bindPose:
      e00: -1.732051
      e01: 0.99999994
      e02: 0
      e03: 0.7304044
      e10: -0.99999994
      e11: -1.732051
      e12: 0
      e13: -0.016658304
      e20: 0
      e21: 0
      e22: 2
      e23: 0
      e30: 0
      e31: 0
      e32: 0
      e33: 1
    boneLength: 1
    path: Body_0/Body_1/Eye_R
    name: Eye_R
    color: {r: 1, g: 0, b: 0, a: 1}
    zOrder: 0
  m_Blendshapes: []
